objFile,initialization,graphBuilderSetup,graphConstruction,graphOptimization,output,composition,firstReplan,blacklisting,execution,total
ExperimentResult1215909636975769040.obj,1662.384,49.184,74.097,9.52,0.0,15.018,1.375,0.0,270.818,1938.86
ExperimentResult6191024737341464590.obj,6834.001,133.315,190.562,19.022,0.0,21.817,0.0,0.0,508.597,7348.497
ExperimentResult8626793864403679751.obj,478.24,15.17,32.125,7.445,0.0,8.088,0.854,0.0,291.879,779.58
ExperimentResult3550349150846565448.obj,866.131,30.482,37.801,7.974,0.0,5.575,0.0,0.0,139.811,1012.355
ExperimentResult6893962112287994582.obj,936.703,25.443,79.33,15.188,0.0,19.189,1.025,0.0,530.675,1474.65
ExperimentResult1454115104367755275.obj,1705.431,62.47,77.32,10.089,0.0,13.375,0.0,0.0,273.095,1985.179
ExperimentResult3928224318674688593.obj,978.227,25.372,77.359,13.053,0.0,21.136,0.0,0.0,416.891,1400.465
ExperimentResult2025964569189167152.obj,861.355,45.183,48.159,7.816,0.0,6.028,0.614,0.0,224.009,1092.022
ExperimentResult7918042579566430855.obj,6615.408,139.324,207.712,17.208,0.0,29.589,1.637,0.0,545.93,7166.874
ExperimentResult3518942923815997802.obj,827.326,27.375,33.757,6.83,0.0,5.601,0.863,0.0,169.84,1003.574
ExperimentResult2240322650203637437.obj,1724.227,55.227,91.997,15.748,0.0,16.163,0.824,0.0,354.467,2084.216
ExperimentResult5629438989743621157.obj,6720.458,130.032,194.33,20.74,0.0,22.674,0.677,0.0,521.119,7247.384
ExperimentResult6347022093351111006.obj,888.411,43.206,43.273,7.8,0.0,5.534,0.0,0.0,169.297,1063.266
ExperimentResult6630079950316830805.obj,25043.016,271.324,368.34,14.97,0.0,28.407,0.533,0.0,1189.154,26238.459
ExperimentResult216004675296845693.obj,1627.61,54.872,62.08,8.686,0.0,14.144,0.0,0.0,256.765,1890.535
ExperimentResult7150913030071042204.obj,1639.903,57.751,62.272,8.178,0.0,13.25,0.0,0.0,238.664,1884.519
ExperimentResult5597127984277599694.obj,6732.101,130.098,219.626,21.719,0.0,24.092,1.096,0.0,544.755,7282.345
ExperimentResult1502879290008554065.obj,897.847,24.864,89.826,15.014,0.0,21.165,0.0,0.0,441.604,1344.696
ExperimentResult1678967262362460036.obj,3870.508,86.438,142.185,18.511,0.0,204.376,0.0,0.0,805.38,4682.722
ExperimentResult3472047813377105061.obj,3798.195,84.115,138.113,21.901,0.0,804.784,0.0,0.0,1399.195,5202.961
ExperimentResult7248118599421932437.obj,1685.101,44.551,86.178,16.182,0.0,15.521,0.0,0.0,347.249,2037.688
ExperimentResult5792992245000777900.obj,1764.255,54.343,95.547,14.967,0.0,14.013,0.884,0.0,359.745,2129.481
ExperimentResult7040556283161104326.obj,904.382,38.943,44.257,7.574,0.0,5.634,0.0,0.0,157.235,1068.121
ExperimentResult4630570148052330582.obj,3837.386,88.124,140.067,16.567,0.0,583.092,2.226,0.0,1476.79,5319.616
ExperimentResult6398853930835316861.obj,24806.252,268.66,642.047,13.618,0.0,32.873,0.0,0.0,1174.597,25986.345
ExperimentResult7005662387038115077.obj,3768.224,86.727,139.368,19.121,0.0,219.221,0.668,0.0,956.977,4731.345
ExperimentResult2900338241616443715.obj,929.336,49.527,55.956,7.519,0.0,5.806,0.0,0.0,195.417,1134.705
ExperimentResult4236813571223332589.obj,6657.463,134.874,188.064,19.706,0.0,28.395,0.523,0.0,549.969,7212.93
ExperimentResult3722929682295969461.obj,932.346,29.479,112.223,14.312,0.0,22.29,0.0,0.0,448.118,1385.506
ExperimentResult7773750090663243447.obj,1715.059,60.925,55.419,7.096,0.0,12.726,0.0,0.0,225.223,1945.728
ExperimentResult2282384114658409348.obj,24303.022,377.069,644.771,13.791,0.0,39.941,0.0,0.0,1274.825,25583.265
ExperimentResult704518022586045578.obj,1751.82,50.3,66.937,9.713,0.0,15.729,0.649,0.0,268.163,2026.058
ExperimentResult3643125544333579681.obj,1722.057,71.027,108.044,14.423,0.0,14.119,0.0,0.0,373.081,2100.218
ExperimentResult4226808974996613945.obj,365.978,14.781,28.156,6.935,0.0,6.688,0.0,0.0,161.749,535.419
ExperimentResult4622837047686828071.obj,1758.106,76.599,104.283,16.334,0.0,14.023,1.185,0.0,499.846,2263.783
ExperimentResult283442945532016449.obj,6581.962,128.971,213.834,22.383,0.0,31.333,0.0,0.0,534.348,7122.14
ExperimentResult1472749024432670420.obj,833.874,44.057,46.164,6.307,0.0,6.39,0.987,0.0,221.701,1061.756
ExperimentResult332796554221459243.obj,25843.378,268.125,360.966,14.561,0.0,29.689,0.0,0.0,1136.487,26985.18
ExperimentResult7037639236797251377.obj,1735.999,57.856,80.025,11.691,0.0,16.185,0.919,0.0,412.467,2155.446
ExperimentResult4857498769045768173.obj,1730.675,47.025,78.964,15.422,0.0,14.313,1.25,0.0,344.539,2081.215
ExperimentResult116656306791686747.obj,1702.907,48.111,63.475,9.048,0.0,13.779,0.0,0.0,239.502,1948.592
ExperimentResult5222800853758431561.obj,4427.645,88.438,167.725,19.276,0.0,728.528,0.0,0.0,1379.806,5813.494
ExperimentResult1146948778088358132.obj,509.082,14.317,28.474,6.773,0.0,8.085,0.834,0.0,224.018,742.866
ExperimentResult6589677072856707563.obj,6941.279,142.304,203.772,21.736,0.0,30.591,0.0,0.0,543.354,7489.294
ExperimentResult4688906022419313398.obj,25326.659,309.392,378.326,9.279,0.0,32.189,2.685,0.0,1257.816,26590.203
ExperimentResult6697878694115974512.obj,933.776,25.367,83.617,12.201,0.0,18.822,0.576,0.0,484.565,1425.533
ExperimentResult2567869772495465125.obj,3876.407,87.361,142.443,21.856,0.0,949.012,0.0,0.0,1571.876,5453.818
ExperimentResult7429280315194514842.obj,378.319,14.162,27.92,8.642,0.0,9.319,0.953,0.0,199.394,584.407
ExperimentResult9161767391273957597.obj,25449.993,275.668,654.225,11.021,0.0,37.289,0.0,0.0,1176.253,26632.617
ExperimentResult5305329022441455548.obj,376.282,14.057,28.124,8.046,0.0,6.167,0.938,0.0,253.199,637.151
ExperimentResult6371662041621961486.obj,1719.198,45.137,65.761,7.412,0.0,16.192,0.859,0.0,267.29,1992.671
ExperimentResult437719759303131204.obj,814.93,40.186,50.297,6.336,0.0,4.596,0.0,0.0,162.093,983.073
ExperimentResult6431368042997408380.obj,1022.052,30.404,82.858,14.533,0.0,23.234,0.0,0.0,431.97,1459.412
ExperimentResult2551102220291538320.obj,978.983,26.361,79.911,12.494,0.0,19.16,0.623,0.0,486.999,1473.017
ExperimentResult2655651602651084068.obj,1720.319,56.514,65.451,8.869,0.0,14.083,0.0,0.0,244.5,1970.123
ExperimentResult8824889390997984714.obj,25119.472,286.162,349.4,9.654,0.0,26.516,1.388,0.0,1158.535,26283.26
ExperimentResult1921934065187943452.obj,833.881,40.85,45.332,5.426,0.0,7.042,1.211,0.0,203.785,1044.354
ExperimentResult1416439892183269354.obj,3854.028,91.992,156.894,20.84,0.0,442.099,0.0,0.0,1056.641,4916.142
ExperimentResult767689091449332232.obj,932.282,42.636,56.255,6.758,0.0,6.446,0.955,0.0,221.467,1160.215
ExperimentResult6462530758443595005.obj,1696.779,45.286,73.352,16.304,0.0,14.668,0.0,0.0,316.696,2019.012
ExperimentResult4315943549833430693.obj,6533.893,127.456,191.996,22.52,0.0,27.076,1.476,0.0,526.969,7066.498
ExperimentResult5458806404463817268.obj,25446.04,369.428,374.725,15.646,0.0,37.726,1.906,0.0,1309.745,26761.827
ExperimentResult4315257249408615138.obj,931.067,26.293,84.751,13.692,0.0,22.413,0.701,0.0,541.855,1479.754
ExperimentResult6353355400621772453.obj,6811.134,142.696,197.06,22.224,0.0,19.069,1.492,0.0,516.596,7333.884
ExperimentResult2952008270068123779.obj,1659.11,61.999,66.027,10.014,0.0,13.845,0.0,0.0,276.023,1940.513
ExperimentResult4057090770635557295.obj,1722.805,58.226,81.6,15.819,0.0,11.399,1.223,0.0,362.246,2092.146
ExperimentResult6232669483493258116.obj,340.109,13.685,30.093,7.68,0.0,5.462,0.564,0.0,193.171,539.887
ExperimentResult2594130557010745822.obj,1757.859,51.251,85.029,15.603,0.0,16.593,0.91,0.0,416.267,2179.9
ExperimentResult5290308874100843828.obj,1729.839,48.125,59.364,7.903,0.0,12.96,0.816,0.0,235.998,1971.791
ExperimentResult3095930212659045705.obj,358.866,13.873,25.644,7.342,0.0,7.422,0.0,0.0,152.971,517.905
ExperimentResult4669132790052506033.obj,1730.916,48.818,63.879,9.926,0.0,16.308,0.641,0.0,262.293,1998.701
ExperimentResult7445469588556246435.obj,24863.533,348.364,371.073,13.442,0.0,35.23,0.0,0.0,1237.349,26107.321
ExperimentResult8969235180782094216.obj,864.915,45.616,51.867,7.669,0.0,4.948,0.0,0.0,187.035,1057.749
ExperimentResult6746961550287051234.obj,299.892,11.276,22.624,6.644,0.0,6.966,0.0,0.0,122.588,429.658
ExperimentResult864236830498674336.obj,3914.149,90.966,137.691,17.282,0.0,292.367,1.074,0.0,1134.828,5054.688
ExperimentResult8233553175515848886.obj,6870.597,137.618,205.884,18.052,0.0,22.332,1.39,0.0,540.842,7417.127
ExperimentResult8057284312551080310.obj,375.501,13.968,27.479,8.578,0.0,7.058,1.219,0.0,209.568,592.347
ExperimentResult3741572527588179767.obj,904.697,29.309,36.091,4.381,0.0,5.396,0.0,0.0,159.742,1070.118
ExperimentResult4622351230631778624.obj,25267.422,296.122,371.724,13.235,0.0,39.715,0.5,0.0,1351.255,26625.831
ExperimentResult2629756173232730328.obj,1032.51,36.472,84.696,14.267,0.0,21.959,0.797,0.0,539.217,1578.686
ExperimentResult2190342165415822995.obj,321.863,13.752,29.318,6.821,0.0,7.0,0.0,0.0,138.562,466.282
ExperimentResult2199787375151856423.obj,6891.051,132.922,201.263,24.095,0.0,17.271,0.0,0.0,523.67,7420.192
ExperimentResult2808439822792076983.obj,939.911,45.994,53.845,7.818,0.0,6.117,0.865,0.0,247.932,1193.304
ExperimentResult5971148484235507845.obj,849.692,43.841,42.32,7.148,0.0,6.661,0.925,0.0,200.663,1057.093
ExperimentResult1130901227931438419.obj,1762.83,47.813,74.508,14.69,0.0,16.586,1.642,0.0,341.913,2110.302
ExperimentResult4834543909305204383.obj,4100.808,88.525,152.715,25.222,0.0,221.121,0.0,0.0,876.686,4982.958
ExperimentResult7525098982928696227.obj,1685.706,63.106,72.741,10.63,0.0,12.058,0.583,0.0,308.265,1999.949
ExperimentResult1462567330301025646.obj,7057.552,137.153,196.289,15.853,0.0,30.165,0.0,0.0,510.905,7574.066
ExperimentResult2038182539525102523.obj,1625.144,46.456,60.345,9.609,0.0,13.739,0.0,0.0,220.718,1852.35
ExperimentResult1704689359645456762.obj,6859.369,138.876,222.481,23.9,0.0,30.875,0.536,0.0,597.215,7463.485
ExperimentResult5933001004323743284.obj,1022.365,32.994,85.168,14.206,0.0,21.334,0.0,0.0,455.526,1483.143
ExperimentResult6349391098960183696.obj,6973.235,151.411,198.877,20.395,0.0,20.394,0.0,0.0,532.753,7511.198
ExperimentResult1920639286817388678.obj,3926.107,102.38,159.949,18.523,0.0,219.441,0.0,0.0,837.699,4769.361
ExperimentResult100814286805184847.obj,822.798,26.63,34.866,7.518,0.0,6.349,0.701,0.0,167.375,995.843
ExperimentResult5860111544978855802.obj,3892.718,83.669,165.515,23.818,0.0,613.124,0.543,0.0,1451.407,5351.041
ExperimentResult1643562108259353672.obj,6714.459,135.822,204.751,18.664,0.0,20.595,1.883,0.0,546.23,7266.565
ExperimentResult2243863481076052742.obj,301.251,12.579,28.06,7.627,0.0,6.905,0.0,0.0,165.989,474.147
ExperimentResult3001958944924637754.obj,320.051,15.096,34.106,8.238,0.0,7.554,0.0,0.0,160.378,488.165
ExperimentResult7204417469289822402.obj,883.656,28.239,40.143,7.148,0.0,7.13,1.071,0.0,185.703,1075.644
ExperimentResult3695847582358897582.obj,25112.439,278.988,354.398,11.917,0.0,28.696,0.0,0.0,1162.836,26280.563
ExperimentResult4023375215275232726.obj,24762.192,266.319,654.592,14.184,0.0,30.611,0.0,0.0,1154.426,25922.149
ExperimentResult2494222047159905404.obj,1780.586,62.994,73.522,9.545,0.0,14.936,0.0,0.0,291.203,2077.293
ExperimentResult2327835083646417967.obj,397.429,14.19,28.195,7.169,0.0,7.404,0.0,0.0,157.648,561.437
ExperimentResult4450616216263932285.obj,1667.929,60.519,61.124,7.132,0.0,13.175,1.25,0.0,285.336,1959.048
ExperimentResult979877467307181508.obj,24689.194,390.734,656.681,13.807,0.0,31.206,0.0,0.0,1285.03,25980.136
ExperimentResult560081296222363870.obj,917.4,24.877,74.227,15.197,0.0,20.894,1.202,0.0,562.879,1485.725
ExperimentResult4092226292754743160.obj,918.85,25.988,82.378,12.216,0.0,18.858,0.0,0.0,468.666,1393.818
ExperimentResult4828662771447958492.obj,1731.014,50.49,64.352,8.292,0.0,14.256,1.409,0.0,267.362,2004.193
ExperimentResult8122507000865243375.obj,6773.318,136.135,189.644,19.302,0.0,30.219,0.587,0.0,520.544,7299.477
ExperimentResult5906008012723142320.obj,1650.184,64.097,72.273,8.832,0.0,13.498,1.331,0.0,291.903,1948.705
ExperimentResult7687560108407853469.obj,24701.251,268.824,352.585,12.183,0.0,35.256,0.0,0.0,1178.414,25884.421
ExperimentResult883155485003502083.obj,1680.455,58.637,89.642,16.728,0.0,18.712,0.0,0.0,346.285,2032.226
ExperimentResult1351288422075505767.obj,3788.561,87.082,151.246,18.558,0.0,241.265,0.0,0.0,844.434,4638.438
ExperimentResult6344420250892052799.obj,6818.12,129.893,202.417,22.547,0.0,31.69,0.0,0.0,536.883,7361.576
ExperimentResult3522118901009047804.obj,916.07,29.146,87.038,14.814,0.0,22.08,0.0,0.0,487.535,1408.85
ExperimentResult5895219294914687848.obj,24924.191,263.382,343.235,10.022,0.0,34.3,0.797,0.0,1198.612,26128.307
ExperimentResult8710011462718643592.obj,6672.296,152.426,195.495,19.558,0.0,31.85,1.54,0.0,548.974,7226.907
ExperimentResult6311975207284456793.obj,24797.674,266.046,356.473,12.789,0.0,31.438,0.0,0.0,1157.107,25960.955
ExperimentResult7359140563218524242.obj,1732.481,44.102,76.076,13.911,0.0,14.824,0.0,0.0,284.722,2022.53
ExperimentResult759043965263397100.obj,3860.381,101.541,160.542,16.662,0.0,949.275,0.0,0.0,1587.1,5452.868
ExperimentResult9054871670323379060.obj,24738.182,283.531,354.524,15.913,0.0,27.318,2.294,0.0,1170.463,25914.229
ExperimentResult4313269881413615215.obj,374.341,9.694,25.845,7.647,0.0,6.969,0.0,0.0,152.313,532.375
ExperimentResult3207318522597120025.obj,24783.102,266.06,344.707,11.661,0.0,28.307,0.491,0.0,1141.649,25930.286
ExperimentResult463442894497005142.obj,6743.215,138.416,197.708,20.961,0.0,17.491,0.0,0.0,540.243,7288.955
ExperimentResult4739843926831877715.obj,6825.598,135.555,196.747,21.657,0.0,20.496,0.518,0.0,521.734,7353.129
ExperimentResult4620472988033714902.obj,6800.819,135.143,217.653,22.483,0.0,30.352,0.0,0.0,544.896,7351.834
ExperimentResult7469596235971352671.obj,314.073,12.072,23.565,7.625,0.0,7.536,0.921,0.0,198.44,522.144
ExperimentResult8793130403529809534.obj,317.554,14.874,23.44,6.815,0.0,6.777,0.0,0.0,129.815,453.434
ExperimentResult3029288886629132165.obj,940.664,26.195,73.816,11.585,0.0,18.051,1.139,0.0,420.341,1368.099
ExperimentResult8989003416511075655.obj,975.148,31.085,101.268,13.222,0.0,22.182,0.0,0.0,433.752,1414.205
ExperimentResult1462164606060591934.obj,823.91,33.311,37.466,6.007,0.0,5.082,0.0,0.0,155.435,987.426
ExperimentResult8424776074520583449.obj,6728.905,138.902,204.603,20.52,0.0,21.518,0.541,0.0,544.61,7279.358
ExperimentResult180926700297486385.obj,1753.14,64.199,86.871,15.93,0.0,11.878,0.0,0.0,332.083,2090.134
ExperimentResult8290540565905837396.obj,3874.776,87.181,146.767,17.247,0.0,279.378,0.0,0.0,867.874,4748.086
ExperimentResult1490518993024198917.obj,6719.909,138.858,226.96,23.978,0.0,29.776,0.0,0.0,578.582,7303.934
ExperimentResult3855504021128153530.obj,6713.61,127.864,185.687,13.254,0.0,14.075,0.589,0.0,502.464,7222.358
ExperimentResult8692071562656818995.obj,6982.443,131.382,216.385,19.716,0.0,25.113,0.0,0.0,540.614,7528.407
ExperimentResult1660327174245905479.obj,285.527,12.378,26.606,7.636,0.0,7.47,0.0,0.0,144.507,436.536
ExperimentResult7808568755450655403.obj,3823.274,98.703,145.632,19.717,0.0,407.553,0.0,0.0,1012.025,4841.116
ExperimentResult4976663203866431972.obj,445.712,15.374,39.837,9.249,0.0,8.02,0.0,0.0,236.546,690.869
ExperimentResult5087469340708705506.obj,1729.288,50.267,82.012,15.855,0.0,14.211,0.0,0.0,352.946,2087.678
ExperimentResult522197380033390545.obj,344.122,8.231,21.909,6.166,0.0,5.921,0.0,0.0,123.627,473.344
ExperimentResult2844891139166065508.obj,927.113,31.053,73.95,14.318,0.0,19.791,0.975,0.0,438.547,1372.735
ExperimentResult1190610464975749063.obj,313.208,13.331,29.417,7.807,0.0,8.114,1.021,0.0,222.03,542.474
ExperimentResult4548116374428664996.obj,6930.928,136.697,216.226,21.816,0.0,27.637,0.0,0.0,550.313,7487.645
ExperimentResult8348615736599329535.obj,1006.645,33.444,80.601,14.247,0.0,21.748,1.877,0.0,600.677,1613.062
ExperimentResult7796461672119734184.obj,883.63,40.774,43.596,7.59,0.0,5.684,0.0,0.0,170.65,1060.399
ExperimentResult560656071311179496.obj,24868.159,264.603,353.854,9.754,0.0,34.579,2.128,0.0,1211.472,26085.288
ExperimentResult6292793704509245277.obj,1641.114,51.311,57.396,7.628,0.0,13.99,0.0,0.0,220.873,1867.19
ExperimentResult3237440010782638258.obj,355.797,14.049,22.71,6.619,0.0,7.662,0.0,0.0,134.261,496.702
ExperimentResult657962934648147206.obj,3897.656,85.354,157.654,21.81,0.0,557.49,0.586,0.0,1347.561,5251.597
ExperimentResult621596844035688667.obj,1663.664,73.901,78.727,8.542,0.0,14.99,1.011,0.0,329.006,1998.401
ExperimentResult539323345731826768.obj,1717.11,53.067,82.338,14.458,0.0,14.901,0.812,0.0,354.437,2077.824
ExperimentResult4455311743942387741.obj,1692.224,55.846,72.897,9.542,0.0,13.946,0.0,0.0,255.182,1952.73
ExperimentResult7970529610471012616.obj,871.462,36.325,45.944,7.667,0.0,5.926,0.0,0.0,158.542,1036.084
ExperimentResult168207513986954276.obj,25104.315,269.32,363.748,13.966,0.0,28.93,0.526,0.0,1233.631,26343.761
ExperimentResult3046254302710378733.obj,953.09,25.614,81.432,13.107,0.0,19.782,0.0,0.0,419.786,1379.686
ExperimentResult3014974113244185081.obj,847.571,42.927,43.744,7.294,0.0,3.818,0.0,0.0,181.343,1035.125
ExperimentResult840603791220830247.obj,6800.728,149.018,211.854,21.777,0.0,26.998,0.559,0.0,565.312,7371.576
ExperimentResult1139608770369244633.obj,853.931,43.487,55.356,7.544,0.0,6.873,0.793,0.0,207.742,1067.427
ExperimentResult7429184184790087376.obj,24886.822,270.849,388.245,14.995,0.0,332.438,2.69,0.0,1214.358,26107.04
ExperimentResult186676227465765259.obj,338.734,14.304,27.61,7.481,0.0,8.332,0.856,0.0,214.881,563.156
ExperimentResult7716010561180933846.obj,1916.388,49.191,93.888,16.329,0.0,14.74,0.954,0.0,416.557,2338.751
ExperimentResult5331409992709641703.obj,1709.354,52.56,73.917,9.21,0.0,16.053,1.156,0.0,272.838,1988.456
ExperimentResult8427852996447280631.obj,1737.607,51.446,90.3,15.044,0.0,9.627,0.0,0.0,295.655,2039.177
ExperimentResult5517306191338288083.obj,322.185,15.12,23.305,7.512,0.0,7.597,0.603,0.0,189.796,519.317
ExperimentResult9184925903266411498.obj,1758.888,50.767,95.149,15.717,0.0,14.698,0.0,0.0,347.314,2112.453
ExperimentResult8519783867068025705.obj,1674.819,58.576,65.992,8.752,0.0,14.855,0.0,0.0,260.651,1941.016
ExperimentResult3291092780910182970.obj,436.788,11.374,23.106,8.465,0.0,8.506,1.138,0.0,233.221,678.394
ExperimentResult9169292264954735207.obj,1740.205,50.722,79.707,12.839,0.0,15.417,0.0,0.0,335.34,2081.124
ExperimentResult1848825109151809137.obj,1747.162,47.183,69.886,9.943,0.0,15.092,3.016,0.0,278.061,2031.548
ExperimentResult3871382003059775746.obj,858.41,43.479,55.291,7.705,0.0,6.673,0.0,0.0,192.495,1056.734
ExperimentResult1867072084290885960.obj,330.96,14.017,26.877,7.185,0.0,8.242,0.877,0.0,220.577,557.323
ExperimentResult7548006707949962775.obj,811.667,28.363,42.195,7.889,0.0,6.064,0.0,0.0,156.857,974.27
ExperimentResult8167907191043819251.obj,982.396,26.832,93.226,14.458,0.0,20.294,0.9,0.0,581.65,1569.934
ExperimentResult1702385168760946150.obj,871.752,40.593,42.052,5.868,0.0,6.442,0.948,0.0,202.546,1080.113
ExperimentResult5207388166648874826.obj,959.621,26.115,78.637,13.05,0.0,22.517,0.0,0.0,423.374,1389.488
ExperimentResult7653469657204571599.obj,977.258,28.132,90.85,14.208,0.0,18.555,0.0,0.0,441.976,1424.456
ExperimentResult8681446911454240976.obj,1698.786,46.233,79.024,14.696,0.0,10.401,0.0,0.0,280.026,1985.265
ExperimentResult3037468789579924983.obj,1702.919,50.211,64.734,10.083,0.0,13.149,0.0,0.0,231.939,1940.605
ExperimentResult946354923303939695.obj,960.529,26.682,81.349,12.578,0.0,19.993,2.084,0.0,467.72,1436.383
ExperimentResult3087458922063385134.obj,6771.369,132.461,200.437,20.994,0.0,26.023,0.0,0.0,528.392,7307.449
ExperimentResult3455322948569993155.obj,1711.719,44.409,72.686,14.451,0.0,15.122,0.0,0.0,296.372,2013.788
ExperimentResult5302627740124641978.obj,3950.571,113.059,179.946,24.961,0.0,409.412,0.0,0.0,1083.722,5040.004
ExperimentResult572537749634911255.obj,6668.384,136.83,205.618,24.66,0.0,33.627,0.0,0.0,566.97,7240.414
ExperimentResult4070808033230393411.obj,927.204,26.126,81.964,11.947,0.0,20.933,2.551,0.0,427.54,1362.21
ExperimentResult8059569953973324845.obj,3936.914,87.605,148.981,20.149,0.0,766.943,0.522,0.0,1464.608,5407.325
ExperimentResult5082591578039159516.obj,835.932,35.344,40.942,7.062,0.0,5.983,0.0,0.0,150.912,992.529
ExperimentResult6409808713008766951.obj,1741.363,62.252,59.56,5.839,0.0,9.345,0.81,0.0,261.627,2008.781
ExperimentResult1941532675180748235.obj,893.074,28.455,33.834,4.655,0.0,6.331,0.777,0.0,202.899,1101.835
ExperimentResult1210394584004764421.obj,24631.947,270.172,349.682,10.12,0.0,33.673,0.0,0.0,1152.827,25790.418
ExperimentResult8921049491670406804.obj,837.439,46.015,41.293,7.739,0.0,5.421,0.0,0.0,184.95,1027.661
ExperimentResult6544432848288988674.obj,3739.036,90.382,140.982,24.377,0.0,225.542,0.518,0.0,1074.689,4820.619
ExperimentResult2396496085597245659.obj,932.413,25.664,73.434,11.38,0.0,18.527,0.694,0.0,467.255,1407.44
ExperimentResult5051190463634633182.obj,1753.362,61.106,93.262,16.866,0.0,16.338,1.01,0.0,457.759,2216.472
ExperimentResult3553161969975917214.obj,925.902,32.716,84.594,13.709,0.0,22.521,0.0,0.0,439.37,1370.662
ExperimentResult1546651595311594792.obj,3864.268,89.922,138.025,16.633,0.0,610.539,2.85,0.0,1355.003,5225.2
ExperimentResult5257071636735029827.obj,3881.306,86.901,135.346,16.909,0.0,205.374,0.0,0.0,780.828,4667.498
ExperimentResult527396281527180764.obj,979.484,28.164,82.482,13.58,0.0,20.017,0.0,0.0,491.472,1476.021
ExperimentResult2194594250447882462.obj,810.945,31.02,35.53,7.047,0.0,5.887,0.0,0.0,143.042,959.765
ExperimentResult4301965068940618432.obj,6802.657,132.002,197.635,19.216,0.0,31.737,0.73,0.0,531.404,7339.701
ExperimentResult414304534443082391.obj,24750.308,263.669,348.601,12.762,0.0,39.556,2.873,0.0,1176.381,25932.99
ExperimentResult4767518263304734810.obj,6777.332,132.775,198.892,23.327,0.0,27.124,0.0,0.0,533.086,7316.641
ExperimentResult1566225417585594439.obj,843.758,31.158,40.542,7.846,0.0,5.544,0.0,0.0,150.761,1000.097
ExperimentResult5948634372032116349.obj,1656.082,46.683,74.604,13.397,0.0,14.138,0.0,0.0,327.791,1990.163
ExperimentResult398941388804793036.obj,3866.478,87.418,141.175,21.186,0.0,461.843,0.0,0.0,1027.868,4900.838
ExperimentResult3464968499679271909.obj,892.514,45.799,42.893,7.269,0.0,6.488,1.008,0.0,241.287,1139.972
ExperimentResult1524303591086667495.obj,3819.417,88.293,140.264,24.011,0.0,621.81,2.002,0.0,1343.164,5169.933
ExperimentResult6710269693596413778.obj,24484.452,274.743,346.085,10.112,0.0,31.646,0.0,0.0,1131.954,25622.34
ExperimentResult1297370971280401212.obj,25219.203,269.029,624.924,9.24,0.0,27.333,0.564,0.0,1223.171,26448.275
ExperimentResult7358473088922868307.obj,1655.719,64.036,91.272,15.033,0.0,16.245,0.879,0.0,407.715,2069.586
ExperimentResult5559967349595740478.obj,392.401,11.436,28.109,8.754,0.0,7.059,0.569,0.0,224.964,625.207
ExperimentResult8746584684073365953.obj,1630.822,47.711,57.492,6.678,0.0,13.166,0.858,0.0,244.192,1881.109
ExperimentResult4721145402214459283.obj,24545.076,263.657,643.338,14.11,0.0,33.129,0.0,0.0,1172.456,25723.393
ExperimentResult8560425415912306698.obj,913.081,26.127,79.135,11.784,0.0,19.493,0.0,0.0,443.223,1361.655
ExperimentResult1285639676836241491.obj,3846.452,86.674,137.358,16.964,0.0,334.517,0.863,0.0,1339.564,5191.655
ExperimentResult2497571769304316221.obj,959.7,30.708,101.103,11.702,0.0,18.367,2.155,0.0,479.794,1445.482
ExperimentResult7396239023800316307.obj,6631.591,151.057,210.201,23.368,0.0,33.195,0.0,0.0,556.082,7194.201
ExperimentResult1624430171515761120.obj,3822.205,84.877,140.224,22.315,0.0,417.285,0.0,0.0,1008.698,4837.35
ExperimentResult7170324687731265237.obj,24905.348,273.826,378.244,15.57,0.0,34.068,0.0,0.0,1204.816,26115.246
ExperimentResult5729036506742755913.obj,3933.535,86.311,137.468,18.972,0.0,481.813,1.145,0.0,1197.577,5137.811
ExperimentResult7935927726631768755.obj,1721.531,44.386,75.656,14.387,0.0,13.957,0.727,0.0,363.449,2090.946
ExperimentResult6019093702689572.obj,24726.85,259.838,384.227,14.873,0.0,33.568,0.631,0.0,1273.471,26006.164
ExperimentResult660924516694093155.obj,24239.675,273.242,347.08,9.548,0.0,24.875,0.0,0.0,1124.699,25369.624
ExperimentResult7720115174160473340.obj,311.676,13.429,26.565,7.004,0.0,7.78,0.0,0.0,133.596,451.944
ExperimentResult6017450240980072903.obj,996.911,28.764,95.397,17.398,0.0,20.481,0.0,0.0,458.882,1461.535
ExperimentResult104656173554963228.obj,3818.379,86.563,139.487,18.949,0.0,210.748,0.402,0.0,906.517,4732.636
ExperimentResult7569579090084592783.obj,335.735,16.049,28.313,6.963,0.0,7.237,0.0,0.0,145.438,488.151
ExperimentResult5735256204684314424.obj,1742.63,62.61,88.986,14.502,0.0,10.156,1.26,0.0,377.591,2126.09
ExperimentResult6539829633036863504.obj,3947.756,90.121,155.547,20.357,0.0,524.373,1.011,0.0,1304.164,5257.917
ExperimentResult4703069981174342476.obj,1671.068,62.831,76.856,9.657,0.0,13.42,0.909,0.0,318.622,1995.618
ExperimentResult7045946964833449291.obj,839.311,38.692,38.069,6.85,0.0,6.361,0.81,0.0,176.982,1022.544
ExperimentResult2465390432797384841.obj,940.05,28.495,85.069,14.053,0.0,20.837,1.403,0.0,600.585,1548.121
ExperimentResult4206197885194014953.obj,25365.519,304.203,408.736,14.845,0.0,32.833,2.327,0.0,1311.872,26682.792
ExperimentResult1384631686835135823.obj,332.464,13.842,26.849,7.647,0.0,7.451,0.0,0.0,150.255,488.77
ExperimentResult6210498387833005386.obj,968.218,32.774,112.06,13.527,0.0,19.185,1.215,0.0,479.108,1453.138
ExperimentResult4153959150797227867.obj,24662.482,322.969,346.347,9.662,0.0,35.255,0.0,0.0,1195.397,25863.164
ExperimentResult6836849799226359970.obj,1790.509,46.778,79.518,13.047,0.0,13.278,0.0,0.0,292.901,2089.257
ExperimentResult7341656966583244806.obj,864.87,32.593,36.192,7.353,0.0,6.181,0.611,0.0,179.523,1051.55
ExperimentResult4648261786106538157.obj,1661.715,69.423,76.147,8.536,0.0,14.68,1.268,0.0,293.056,1960.786
ExperimentResult520609707287726315.obj,347.081,14.57,30.373,8.743,0.0,7.366,0.0,0.0,164.866,518.327
ExperimentResult7623882522553784431.obj,978.961,24.659,76.007,14.129,0.0,21.762,0.0,0.0,439.342,1423.473
ExperimentResult7991874112453138567.obj,6962.667,137.788,226.195,22.61,0.0,32.815,0.0,0.0,581.08,7550.875
ExperimentResult3191742281126051107.obj,3862.958,85.02,151.505,26.303,0.0,242.504,0.0,0.0,838.59,4708.743
ExperimentResult3425077782037302881.obj,1724.111,56.395,66.163,9.037,0.0,13.602,0.0,0.0,261.582,1991.315
ExperimentResult4242601053261230089.obj,835.024,29.554,33.335,7.309,0.0,5.852,0.539,0.0,158.264,999.567
ExperimentResult8887164441055667810.obj,307.321,12.865,27.33,7.772,0.0,8.054,0.901,0.0,236.668,551.251
ExperimentResult8633349577699549600.obj,3977.549,87.742,149.756,19.285,0.0,212.731,0.808,0.0,911.19,4894.299
ExperimentResult1428192387425010885.obj,809.717,30.596,39.435,6.419,0.0,6.25,1.041,0.0,157.911,973.903
ExperimentResult1000920085634196560.obj,389.717,12.924,21.782,7.958,0.0,7.756,0.885,0.0,180.944,577.602
ExperimentResult2705274680050111129.obj,1715.699,58.814,76.701,8.935,0.0,15.254,0.0,0.0,269.522,1991.204
ExperimentResult3561271652635259046.obj,3942.74,87.389,153.107,16.828,0.0,306.26,0.0,0.0,898.041,4848.319
ExperimentResult354498103123082401.obj,25131.707,274.806,347.925,9.686,0.0,39.046,0.566,0.0,1190.197,26327.913
ExperimentResult122627645504704894.obj,1695.366,45.171,58.166,9.337,0.0,11.746,0.0,0.0,243.24,1944.737
ExperimentResult2861611136095721767.obj,1663.743,50.727,60.244,8.842,0.0,13.937,0.0,0.0,245.776,1915.17
ExperimentResult918362237282726262.obj,24860.96,282.896,338.954,12.973,0.0,39.166,0.0,0.0,1160.867,26027.318
ExperimentResult448851338412596103.obj,1639.995,61.135,66.015,7.893,0.0,13.533,0.683,0.0,263.064,1908.773
ExperimentResult5559494182844490411.obj,1636.913,67.624,77.141,8.602,0.0,11.376,0.0,0.0,250.917,1893.393
ExperimentResult4179406461787193278.obj,6714.995,136.601,188.606,20.86,0.0,19.536,0.0,0.0,516.603,7238.218
ExperimentResult8145345203556278302.obj,24926.616,278.42,356.357,12.017,0.0,34.905,0.0,0.0,1163.668,26096.9
ExperimentResult5063022226623015283.obj,1667.649,60.057,89.108,15.87,0.0,12.538,1.034,0.0,355.133,2028.564
ExperimentResult5943305131580962928.obj,935.384,26.346,82.254,12.761,0.0,20.458,2.075,0.0,522.32,1465.459
ExperimentResult6479620032292154929.obj,1728.625,60.491,91.507,15.351,0.0,13.426,0.96,0.0,430.283,2164.655
ExperimentResult7147534851542942993.obj,3887.178,89.206,153.632,28.361,0.0,297.77,0.595,0.0,1017.468,4909.659
ExperimentResult8324215960016030414.obj,6700.934,132.562,200.401,18.856,0.0,27.926,1.985,0.0,538.881,7245.726
ExperimentResult4625657863525417592.obj,360.732,13.098,25.281,7.445,0.0,7.397,0.0,0.0,129.364,496.348
ExperimentResult3886520275926711840.obj,3832.805,88.638,140.972,16.953,0.0,846.159,2.029,0.0,2040.972,5879.428
ExperimentResult7415820781948979973.obj,25464.63,277.005,356.794,16.046,0.0,40.846,2.422,0.0,1189.217,26659.624
ExperimentResult7658184644477256886.obj,1676.701,48.421,71.482,9.256,0.0,14.686,0.603,0.0,266.358,1949.093
ExperimentResult8928085273237326209.obj,817.766,46.976,39.436,7.134,0.0,4.947,0.0,0.0,198.117,1021.886
ExperimentResult55763562339948873.obj,3874.737,100.2,146.211,27.897,0.0,299.856,0.506,0.0,1141.194,5021.645
ExperimentResult7828870305886695729.obj,906.461,39.213,44.237,6.706,0.0,7.186,1.067,0.0,201.413,1114.895
ExperimentResult768524756334860870.obj,1760.574,53.948,114.591,18.883,0.0,14.769,0.0,0.0,404.79,2171.478
ExperimentResult2154513754549076815.obj,971.926,26.104,87.281,14.501,0.0,21.363,0.0,0.0,454.392,1431.395
ExperimentResult8340611579774383353.obj,1709.903,44.41,76.371,12.336,0.0,14.408,1.03,0.0,394.337,2109.386
ExperimentResult7267745477115496052.obj,298.37,13.538,27.171,7.45,0.0,9.054,0.834,0.0,197.591,503.409
ExperimentResult8543926024796025140.obj,1764.552,49.365,76.455,13.907,0.0,12.876,0.852,0.0,352.395,2122.677
ExperimentResult4021499254616578111.obj,3877.566,90.437,146.389,21.506,0.0,307.875,0.0,0.0,916.342,4799.509
ExperimentResult6374636716585456298.obj,933.863,27.764,81.62,12.541,0.0,19.749,1.69,0.0,471.514,1412.76
ExperimentResult8315307059699442296.obj,966.77,31.272,98.955,14.414,0.0,22.531,0.0,0.0,446.693,1421.195
ExperimentResult57877364161660459.obj,1800.853,56.774,88.643,14.724,0.0,14.687,0.0,0.0,359.162,2167.041
ExperimentResult6854772250992172574.obj,6873.126,130.29,200.511,21.331,0.0,25.205,3.036,0.0,544.831,7423.811
ExperimentResult6224201236192186508.obj,326.844,12.012,21.933,7.261,0.0,7.469,0.845,0.0,197.928,533.322
ExperimentResult7341395187993863636.obj,3835.957,102.52,150.619,19.576,0.0,214.822,0.891,0.0,966.819,4808.542
ExperimentResult3114160661392992680.obj,1760.454,58.455,109.537,16.833,0.0,14.54,0.0,0.0,384.104,2150.18
ExperimentResult784727140222211133.obj,25711.926,298.914,370.131,10.459,0.0,35.635,0.738,0.0,1208.275,26926.032
ExperimentResult8458201236171741515.obj,407.72,12.981,25.528,6.345,0.0,6.478,0.786,0.0,210.468,626.451
ExperimentResult79857829039623403.obj,1713.595,68.743,86.756,14.637,0.0,15.735,0.0,0.0,370.221,2090.438
